{
    "author": "Opentrons",
    "categories": {
        "Sample Prep": [
            "Mass Spec"
        ]
    },
    "deck-setup": "One Plate Example:\n",
    "description": "This protocol performs the preparation of samples from tubes to plates. It takes in a CSV file and uses the it to load the labware and make the necessary liquid transfers. It can support up to 2 sample plates.\nExplanation of complex parameters below:\n* Input CSV File: Upload a CSV file with the formatting shown in the block below for either One Plate or Two Plates:\nOne Plate\nSample ID,Slot number ,Rack position,Wellplate A position,Wellplate A well position\nSample1,1,1,3,A1\nSample2,1,2,3,A2\nSample3,1,3,3,A3\nTwo Plates\nSample ID,Slot number ,Rack position,Wellplate A position,Wellplate A well position,Wellplate B position,Wellplate B well position\nSample1,1,1,3,A1,6,A1\nSample2,1,2,3,A2,6,A2\nSample3,1,3,3,A3,6,A3\n\nSample Volume: The amount of sample to transfer from the tubes to the plate.\nAcetonitrile Transfer: Whether to transfer acetonitrile into the plates (Steps 6-8).\nP300 Single Channel GEN2 Mount Position: Select the pipette mount position.\nP300 Multi Channel GEN2 Mount Position: Select the pipette mount position.\nBlowout After Dispensing Sample: Whether to blow out after dispensing sample.\nSample Aspiration Flow Rate (uL/s): The flow rate when aspirating liquid.\nSample Dispense Flow Rate (uL/s): The flow rate when dispensing liquid.\n\n",
    "internal": "459cc2",
    "labware": "\nTBD\n",
    "markdown": {
        "author": "[Opentrons](https://opentrons.com/)\n\n",
        "categories": "* Sample Prep\n\t* Mass Spec\n\n",
        "deck-setup": "\n**One Plate Example:**\n\n![deck layout](https://opentrons-protocol-library-website.s3.amazonaws.com/custom-README-images/459cc2/459cc2-layout.png)\n\n",
        "description": "This protocol performs the preparation of samples from tubes to plates. It takes in a CSV file and uses the it to load the labware and make the necessary liquid transfers. It can support up to 2 sample plates.\n\nExplanation of complex parameters below:\n* `Input CSV File`: Upload a CSV file with the formatting shown in the block below for either One Plate or Two Plates:\n\n**One Plate**\n```\nSample ID,Slot number ,Rack position,Wellplate A position,Wellplate A well position\nSample1,1,1,3,A1\nSample2,1,2,3,A2\nSample3,1,3,3,A3\n```\n\n**Two Plates**\n```\nSample ID,Slot number ,Rack position,Wellplate A position,Wellplate A well position,Wellplate B position,Wellplate B well position\nSample1,1,1,3,A1,6,A1\nSample2,1,2,3,A2,6,A2\nSample3,1,3,3,A3,6,A3\n```\n\n* `Sample Volume`: The amount of sample to transfer from the tubes to the plate.\n* `Acetonitrile Transfer`: Whether to transfer acetonitrile into the plates (Steps 6-8).\n* `P300 Single Channel GEN2 Mount Position`: Select the pipette mount position.\n* `P300 Multi Channel GEN2 Mount Position`: Select the pipette mount position.\n* `Blowout After Dispensing Sample`: Whether to blow out after dispensing sample.\n* `Sample Aspiration Flow Rate (uL/s)`: The flow rate when aspirating liquid.\n* `Sample Dispense Flow Rate (uL/s)`: The flow rate when dispensing liquid.\n\n---\n\n",
        "internal": "459cc2",
        "labware": "* TBD\n\n",
        "notes": "If you have any questions about this protocol, please contact the Protocol Development Team by filling out the [Troubleshooting Survey](https://protocol-troubleshooting.paperform.co/).\n\n",
        "pipettes": "* [P300 Single Channel GEN2](https://shop.opentrons.com/collections/ot-2-robot/products/single-channel-electronic-pipette?variant=5984549109789)\n* [P300 Multi Channel GEN2](https://shop.opentrons.com/collections/ot-2-robot/products/8-channel-electronic-pipette?variant=5984202489885)\n\n---\n\n",
        "process": "1. Input your protocol parameters above.\n2. Download your protocol and unzip if needed.\n3. Upload your custom labware to the [OT App](https://opentrons.com/ot-app) by navigating to `More` > `Custom Labware` > `Add Labware`, and selecting your labware files (.json extensions) if needed.\n4. Upload your protocol file (.py extension) to the [OT App](https://opentrons.com/ot-app) in the `Protocol` tab.\n5. Set up your deck according to the deck map.\n6. Calibrate your labware, tiprack and pipette using the OT App. For calibration tips, check out our [support articles](https://support.opentrons.com/en/collections/1559720-guide-for-getting-started-with-the-ot-2).\n7. Hit 'Run'.\n\n",
        "protocol-steps": "1. Aspirate 50 uL of the sample from tube rack using the single channel pippete P300. Add a 20 uL air gap.\t\t\t\t\t\n2. Dispense sample into a A1 of Plate 1. Use blowout after dispensing. (Repeat for same well on Plate 2 if needed).\n3. Discard tip into the trash bin.\n4. Repeat steps 1-3 for all wells in the CSV file.\n5. Pick up tips with the multichannel pipette, transfer 100 uL of Acetonitrile to all wells in the plate.\n6. Discard tip into the trashbin.\n\n",
        "reagent-setup": "* Slot 7 Reservoir: Acetonitrile\n\n---\n\n",
        "title": "Custom CSV Mass Spec Sample Prep"
    },
    "notes": "If you have any questions about this protocol, please contact the Protocol Development Team by filling out the Troubleshooting Survey.",
    "pipettes": "\nP300 Single Channel GEN2\nP300 Multi Channel GEN2\n\n",
    "process": "\nInput your protocol parameters above.\nDownload your protocol and unzip if needed.\nUpload your custom labware to the OT App by navigating to More > Custom Labware > Add Labware, and selecting your labware files (.json extensions) if needed.\nUpload your protocol file (.py extension) to the OT App in the Protocol tab.\nSet up your deck according to the deck map.\nCalibrate your labware, tiprack and pipette using the OT App. For calibration tips, check out our support articles.\nHit 'Run'.\n",
    "protocol-steps": "\nAspirate 50 uL of the sample from tube rack using the single channel pippete P300. Add a 20 uL air gap.                  \nDispense sample into a A1 of Plate 1. Use blowout after dispensing. (Repeat for same well on Plate 2 if needed).\nDiscard tip into the trash bin.\nRepeat steps 1-3 for all wells in the CSV file.\nPick up tips with the multichannel pipette, transfer 100 uL of Acetonitrile to all wells in the plate.\nDiscard tip into the trashbin.\n",
    "reagent-setup": "\nSlot 7 Reservoir: Acetonitrile\n\n",
    "title": "Custom CSV Mass Spec Sample Prep"
}